﻿{
  configDir: "conf",
  files : {
    "conf\\prod.yaml" : {
        env: ["Production"],
        type : "Config"
    },
    
    "bin\\Debug" : {
        env: ["Production"],
        type : "BinDir"
    },
    
    "index.html" : {
        env: ["Production"],
        type : "Asset",
        destination: "index.html"
    }
  }
}